# 3ds Max Wavefront OBJ Exporter v0.97b - (c)2007 guruware
# File Created: 25.01.2016 02:22:51

newmtl 01___Default
	Ns 10.0000
	Ni 1.5000
	d 1.0000
	Tr 0.0000
	Tf 1.0000 1.0000 1.0000 
	illum 2
	Ka 0.0000 0.0000 0.0000
	Kd 0.0000 0.0000 0.0000
	Ks 0.0000 0.0000 0.0000
	Ke 0.0000 0.0000 0.0000
	map_Ka /Users/Kiran.Dimble/Workspace/WS_reactVR/Basics/static_assets/objects/h5uo4n0v569s-earth4096_earth.jpg
	map_Kd /Users/Kiran.Dimble/Workspace/WS_reactVR/Basics/static_assets/objects/h5uo4n0v569s-earth4096_earth.jpg
	map_Ke /Users/Kiran.Dimble/Workspace/WS_reactVR/Basics/static_assets/objects/h5uo4n0v569s-earth4096_night_lights.jpg
	map_bump /Users/Kiran.Dimble/Workspace/WS_reactVR/Basics/static_assets/objects/h5uo4n0v569s-earth4096_bump.jpg
	bump /Users/Kiran.Dimble/Workspace/WS_reactVR/Basics/static_assets/objects/h5uo4n0v569s-earth4096_bump.jpg

newmtl 02___Default
	Ns 10.0000
	Ni 1.5000
	d 1.0000
	Tr 0.0000
	Tf 1.0000 1.0000 1.0000 
	illum 2
	Ka 0.5882 0.5882 0.5882
	Kd 0.5882 0.5882 0.5882
	Ks 0.0000 0.0000 0.0000
	Ke 0.0000 0.0000 0.0000
	map_Ka /Users/Kiran.Dimble/Workspace/WS_reactVR/Basics/static_assets/objects/h5uo4n0v569s-earth4096_clouds.jpg
	map_Kd /Users/Kiran.Dimble/Workspace/WS_reactVR/Basics/static_assets/objects/h5uo4n0v569s-earth4096_clouds.jpg
	map_d /Users/Kiran.Dimble/Workspace/WS_reactVR/Basics/static_assets/objects/h5uo4n0v569s-earth4096_clouds.jpg
