# 3ds Max Wavefront OBJ Exporter v0.97b - (c)2007 guruware
# File Created: 06.10.2013 19:40:35

newmtl 01___Default
	Ns 10.0000
	Ni 1.5000
	d 1.0000
	Tr 0.0000
	Tf 1.0000 1.0000 1.0000 
	illum 2
	Ka 0.5882 0.5882 0.5882
	Kd 0.5882 0.5882 0.5882
	Ks 0.0000 0.0000 0.0000
	Ke 0.0000 0.0000 0.0000
	map_Ka objects/Moon_3D_Model/MoonMap2_2500x1250.jpg
	map_Kd objects/Moon_3D_Model/MoonMap2_2500x1250.jpg
	map_bump objects/Moon_3D_Model/moon-normal.jpg
	bump objects/Moon_3D_Model/moon-normal.jpg
